%YAML 1.1
%TAG !u! tag:unity3d.com,2011:
--- !u!114 &11400000
MonoBehaviour:
  m_ObjectHideFlags: 0
  m_CorrespondingSourceObject: {fileID: 0}
  m_PrefabInstance: {fileID: 0}
  m_PrefabAsset: {fileID: 0}
  m_GameObject: {fileID: 0}
  m_Enabled: 1
  m_EditorHideFlags: 0
  m_Script: {fileID: 11500000, guid: 80261aa933a8424daf35d99af3172416, type: 3}
  m_Name: GameManager
  m_EditorClassIdentifier: 
  connections:
    list:
    - {fileID: 11400000, guid: 496714826969c402781fd072d1143276, type: 2}
  controllers:
    list:
    - {fileID: 11400000, guid: 21d66751e194e4717aae212ce4ebbd2b, type: 2}
    - {fileID: 11400000, guid: 678a611be2c674e3d976e3ecbcef1d45, type: 2}
  gameManagerInfo:
    connectionController: {fileID: 11400000, guid: 21d66751e194e4717aae212ce4ebbd2b,
      type: 2}
    authenticationController: {fileID: 11400000, guid: 678a611be2c674e3d976e3ecbcef1d45,
      type: 2}
