{
    "name": "GameArch.Presenters.Authentication",
    "references": [
        "GUID:4bfb12e0f30744c71b8b142f3ad8b153",
        "GUID:e1a7add7179a94dcc9fd39bc0b3aa7b2",
        "GUID:eca2695a489744ac0a5beab107778bd4"
    ],
    "includePlatforms": [],
    "excludePlatforms": [],
    "allowUnsafeCode": false,
    "overrideReferences": false,
    "precompiledReferences": [],
    "autoReferenced": true,
    "defineConstraints": [],
    "versionDefines": [],
    "noEngineReferences": false
}