{
    "name": "GameArch.Controllers.Authentication",
    "references": [
        "GUID:4bfb12e0f30744c71b8b142f3ad8b153",
        "GUID:e058bba2897ae43fb95ed434b872673b"
    ],
    "includePlatforms": [],
    "excludePlatforms": [],
    "allowUnsafeCode": false,
    "overrideReferences": false,
    "precompiledReferences": [],
    "autoReferenced": true,
    "defineConstraints": [],
    "versionDefines": [],
    "noEngineReferences": false
}