{
    "name": "Game",
    "references": [
        "GUID:4bfb12e0f30744c71b8b142f3ad8b153",
        "GUID:6312cf82411084840be4cc472902edee",
        "GUID:eca2695a489744ac0a5beab107778bd4",
        "GUID:e1a7add7179a94dcc9fd39bc0b3aa7b2",
        "GUID:c7b87de9de2904947a1a186cc596f1fe",
        "GUID:ae4063402a29f4e098eb31cafd402d93"
    ],
    "includePlatforms": [],
    "excludePlatforms": [],
    "allowUnsafeCode": false,
    "overrideReferences": false,
    "precompiledReferences": [],
    "autoReferenced": true,
    "defineConstraints": [],
    "versionDefines": [],
    "noEngineReferences": false
}